<?xml version="1.0" encoding="UTF-8"?>
<CustomTab xmlns="http://soap.sforce.com/2006/04/metadata">
    <label>All Activities</label>
    <lwcComponent>investorsListViewAllActivities</lwcComponent>
    <motif>Custom20: Airplane</motif>
</CustomTab>
