<?xml version="1.0" encoding="UTF-8"?>
<CustomTab xmlns="http://soap.sforce.com/2006/04/metadata">
    <label>Parent Child Related List</label>
    <lwcComponent>parentChildRelatedList</lwcComponent>
    <motif>Custom63: Chip</motif>
</CustomTab>
